SME.vcd
$date
	Fri Aug 28 16:42:46 2020
$end
$version
	ModelSim Version 10.1d
$end
$timescale
	10ps
$end
$scope module testfixture $end
$var integer 32 ! linedata $end
$var integer 32 " char_count $end
$var reg 1 # clk $end
$var wire 1 $ valid $end
$var reg 1 % reset $end
$var reg 8 & chardata [7:0] $end
$var reg 1 ' isstring $end
$var reg 1 ( ispattern $end
$var wire 1 ) match $end
$var wire 1 * match_index [4] $end
$var wire 1 + match_index [3] $end
$var wire 1 , match_index [2] $end
$var wire 1 - match_index [1] $end
$var wire 1 . match_index [0] $end
$var reg 23 / cycle [22:0] $end
$var integer 32 0 strindex $end
$var reg 8 1 goldmatch_index [7:0] $end
$var reg 1 2 goldmatch $end
$var reg 1 3 valid_reg $end
$var reg 1 4 wait_valid $end
$var reg 1 5 getmatch $end
$var reg 8 6 getmatch_index [7:0] $end
$var integer 32 7 score $end
$var integer 32 8 allpass $end
$scope module u_SME $end
$var parameter 3 9 readString $end
$var parameter 3 : readPattern $end
$var parameter 3 ; compare $end
$var parameter 3 < result $end
$var parameter 3 = compare_special_front $end
$var parameter 3 > compare_special_after $end
$var wire 1 ? clk $end
$var wire 1 @ reset $end
$var wire 1 A chardata [7] $end
$var wire 1 B chardata [6] $end
$var wire 1 C chardata [5] $end
$var wire 1 D chardata [4] $end
$var wire 1 E chardata [3] $end
$var wire 1 F chardata [2] $end
$var wire 1 G chardata [1] $end
$var wire 1 H chardata [0] $end
$var wire 1 I isstring $end
$var wire 1 J ispattern $end
$var reg 1 K match $end
$var reg 5 L match_index [4:0] $end
$var reg 1 M valid $end
$var reg 3 N current_state [2:0] $end
$var reg 3 O next_state [2:0] $end
$var reg 256 P stringData [255:0] $end
$var reg 64 Q pattern [63:0] $end
$var reg 6 R stringCounter [5:0] $end
$var reg 6 S stringNum [5:0] $end
$var reg 4 T patternCounter [3:0] $end
$var reg 1 U matchTemp $end
$var reg 6 V indexNum [5:0] $end
$var reg 3 W special_locate [2:0] $end
$var reg 1 X special $end
$var reg 1 Y match_front $end
$var reg 1 Z match_after $end
$var reg 64 [ pattern_front [63:0] $end
$var reg 64 \ pattern_after [63:0] $end
$var reg 64 ] stringBuffer [63:0] $end
$var reg 64 ^ patternTemp [63:0] $end
$var reg 64 _ patternTempAfter [63:0] $end
$var reg 5 ` matc_indexTemp [4:0] $end
$var reg 4 a pattern_front_count [3:0] $end
$upscope $end
$upscope $end
$scope begin std $end
$upscope $end
$enddefinitions $end
#0
$dumpvars
0#
0%
bx &
0'
0(
xK
bx L
xM
bx N
b0 O
bx P
bx Q
bx R
bx S
bx T
xU
bx V
bx W
xX
xY
xZ
bx [
bx \
bx ]
bx ^
bx _
bx `
bx a
b0 /
bx 1
x2
x3
x4
x5
bx 6
b0 9
b1 :
b10 ;
b11 <
b100 =
b101 >
b10000000000000000000000000000100 !
bx "
bx 0
b0 7
b1 8
x$
x)
x.
x-
x,
x+
x*
0?
0@
xH
xG
xF
xE
xD
xC
xB
xA
0I
0J
$end
#1000
1#
1?
b1 /
b0 N
0M
0$
b1 O
0U
0Y
0Z
#1100
1%
1@
0K
b0 `
b0 L
b0 P
b0 \
b0 Q
b0 W
0X
b0 R
b0 T
0)
0.
0-
0,
0+
0*
bx00000000 ^
bx0000000000000000 ^
bx000000000000000000000000 ^
bx00000000000000000000000000000000 ^
bx0000000000000000000000000000000000000000 ^
bx000000000000000000000000000000000000000000000000 ^
bx00000000000000000000000000000000000000000000000000000000 ^
b0 ^
bx00000000 _
bx0000000000000000 _
bx000000000000000000000000 _
bx00000000000000000000000000000000 _
bx0000000000000000000000000000000000000000 _
bx000000000000000000000000000000000000000000000000 _
bx00000000000000000000000000000000000000000000000000000000 _
b0 _
b0 [
b0 ]
#2000
0#
0?
04
03
#3000
1#
1?
b10 /
#4000
0#
0?
#5000
1#
1?
b11 /
#6000
0#
0?
#7000
1#
1?
b100 /
#7100
0%
0@
#8000
0#
0?
b11100 "
1'
b0 0
b1100001 &
1H
0G
0F
0E
0D
1C
1B
0A
1I
b0 O
#9000
1#
1?
b101 /
b1100001 P
b1 R
#10000
0#
0?
b1 0
b1100010 &
0H
1G
#11000
1#
1?
b110 /
b110001001100001 P
b10 R
#12000
0#
0?
b10 0
b1100011 &
1H
#13000
1#
1?
b111 /
b11000110110001001100001 P
b11 R
#14000
0#
0?
b11 0
b1100100 &
0H
0G
1F
#15000
1#
1?
b1000 /
b1100100011000110110001001100001 P
b100 R
#16000
0#
0?
b100 0
b1101001 &
1H
0F
1E
#17000
1#
1?
b1001 /
b110100101100100011000110110001001100001 P
b101 R
#18000
0#
0?
b101 0
b1101010 &
0H
1G
#19000
1#
1?
b1010 /
b11010100110100101100100011000110110001001100001 P
b110 R
#20000
0#
0?
b110 0
b1101011 &
1H
#21000
1#
1?
b1011 /
b1101011011010100110100101100100011000110110001001100001 P
b111 R
#22000
0#
0?
b111 0
b100000 &
0H
0G
0E
0B
#23000
1#
1?
b1100 /
b10000001101011011010100110100101100100011000110110001001100001 P
b1000 R
#24000
0#
0?
b1000 0
b1101100 &
1F
1E
1B
#25000
1#
1?
b1101 /
b11011000010000001101011011010100110100101100100011000110110001001100001 P
b1001 R
#26000
0#
0?
b1001 0
b1101101 &
1H
#27000
1#
1?
b1110 /
b1101101011011000010000001101011011010100110100101100100011000110110001001100001 P
b1010 R
#28000
0#
0?
b1010 0
b1101110 &
0H
1G
#29000
1#
1?
b1111 /
b110111001101101011011000010000001101011011010100110100101100100011000110110001001100001 P
b1011 R
#30000
0#
0?
b1011 0
b1101111 &
1H
#31000
1#
1?
b10000 /
b11011110110111001101101011011000010000001101011011010100110100101100100011000110110001001100001 P
b1100 R
#32000
0#
0?
b1100 0
b1110000 &
0H
0G
0F
0E
1D
#33000
1#
1?
b10001 /
b1110000011011110110111001101101011011000010000001101011011010100110100101100100011000110110001001100001 P
b1101 R
#34000
0#
0?
b1101 0
b100000 &
0D
0B
#35000
1#
1?
b10010 /
b10000001110000011011110110111001101101011011000010000001101011011010100110100101100100011000110110001001100001 P
b1110 R
#36000
0#
0?
b1110 0
b1110001 &
1H
1D
1B
#37000
1#
1?
b10011 /
b11100010010000001110000011011110110111001101101011011000010000001101011011010100110100101100100011000110110001001100001 P
b1111 R
#38000
0#
0?
b1111 0
b100000 &
0H
0D
0B
#39000
1#
1?
b10100 /
b100000011100010010000001110000011011110110111001101101011011000010000001101011011010100110100101100100011000110110001001100001 P
b10000 R
#40000
0#
0?
b10000 0
b1110010 &
1G
1D
1B
#41000
1#
1?
b10101 /
b111001000100000011100010010000001110000011011110110111001101101011011000010000001101011011010100110100101100100011000110110001001100001 P
b10001 R
#42000
0#
0?
b10001 0
b1110011 &
1H
#43000
1#
1?
b10110 /
b11100110111001000100000011100010010000001110000011011110110111001101101011011000010000001101011011010100110100101100100011000110110001001100001 P
b10010 R
#44000
0#
0?
b10010 0
b1110100 &
0H
0G
1F
#45000
1#
1?
b10111 /
b1110100011100110111001000100000011100010010000001110000011011110110111001101101011011000010000001101011011010100110100101100100011000110110001001100001 P
b10011 R
#46000
0#
0?
b10011 0
b1110101 &
1H
#47000
1#
1?
b11000 /
b111010101110100011100110111001000100000011100010010000001110000011011110110111001101101011011000010000001101011011010100110100101100100011000110110001001100001 P
b10100 R
#48000
0#
0?
b10100 0
b1110110 &
0H
1G
#49000
1#
1?
b11001 /
b11101100111010101110100011100110111001000100000011100010010000001110000011011110110111001101101011011000010000001101011011010100110100101100100011000110110001001100001 P
b10101 R
#50000
0#
0?
0'
b10000 "
1(
b0 0
02
b0 1
b110001 &
1H
0G
0F
0B
0I
1J
b1 O
#51000
1#
1?
b11010 /
b1 N
b110001 Q
b0 R
b10101 S
b1 T
b10100 V
b110001 ^
#52000
0#
0?
b1 0
b110010 &
0H
1G
#53000
1#
1?
b11011 /
b11001000110001 Q
b10 T
b10011 V
b11001000110001 ^
#54000
0#
0?
b10 0
b110011 &
1H
#55000
1#
1?
b11100 /
b1100110011001000110001 Q
b11 T
b10010 V
b1100110011001000110001 ^
#56000
0#
0?
b11 0
b110100 &
0H
0G
1F
#57000
1#
1?
b11101 /
b110100001100110011001000110001 Q
b100 T
b10001 V
b110100001100110011001000110001 ^
#58000
0#
0?
14
0(
0J
b10 O
#59000
1#
1?
b11110 /
b10 N
#60000
0#
0?
#61000
1#
1?
b11111 /
b1 L
1.
b110110000100000011010110110101001101001011001000110001101100010 ]
#62000
0#
0?
#63000
1#
1?
b100000 /
b10 L
0.
1-
b110110101101100001000000110101101101010011010010110010001100011 ]
#64000
0#
0?
#65000
1#
1?
b100001 /
b11 L
1.
b110111001101101011011000010000001101011011010100110100101100100 ]
#66000
0#
0?
#67000
1#
1?
b100010 /
b100 L
0.
0-
1,
b110111101101110011011010110110000100000011010110110101001101001 ]
#68000
0#
0?
#69000
1#
1?
b100011 /
b101 L
1.
b111000001101111011011100110110101101100001000000110101101101010 ]
#70000
0#
0?
#71000
1#
1?
b100100 /
b110 L
0.
1-
b10000001110000011011110110111001101101011011000010000001101011 ]
#72000
0#
0?
#73000
1#
1?
b100101 /
b111 L
1.
b111000100100000011100000110111101101110011011010110110000100000 ]
#74000
0#
0?
#75000
1#
1?
b100110 /
b1000 L
0.
0-
0,
1+
b10000001110001001000000111000001101111011011100110110101101100 ]
#76000
0#
0?
#77000
1#
1?
b100111 /
b1001 L
1.
b111001000100000011100010010000001110000011011110110111001101101 ]
#78000
0#
0?
#79000
1#
1?
b101000 /
b1010 L
0.
1-
b111001101110010001000000111000100100000011100000110111101101110 ]
#80000
0#
0?
#81000
1#
1?
b101001 /
b1011 L
1.
b111010001110011011100100010000001110001001000000111000001101111 ]
#82000
0#
0?
#83000
1#
1?
b101010 /
b1100 L
0.
0-
1,
b111010101110100011100110111001000100000011100010010000001110000 ]
#84000
0#
0?
#85000
1#
1?
b101011 /
b1101 L
1.
b111011001110101011101000111001101110010001000000111000100100000 ]
#86000
0#
0?
#87000
1#
1?
b101100 /
b1110 L
0.
1-
b1110110011101010111010001110011011100100010000001110001 ]
#88000
0#
0?
#89000
1#
1?
b101101 /
b1111 L
1.
b11101100111010101110100011100110111001000100000 ]
#90000
0#
0?
#91000
1#
1?
b101110 /
b10000 L
0.
0-
0,
0+
1*
b111011001110101011101000111001101110010 ]
#92000
0#
0?
#93000
1#
1?
b101111 /
b10001 L
1.
b11 O
b1110110011101010111010001110011 ]
#94000
0#
0?
#95000
1#
1?
b110000 /
b11 N
1M
b0 T
1$
b10101 V
#96000
0#
0?
04
05
b10001 6
b1 7
1(
b0 0
12
b1100001 &
1H
0F
0D
1B
1J
b1 O
#97000
1#
1?
b110001 /
13
b1 N
0M
b110100001100110011001001100001 Q
b1 T
0$
b10100 V
b110100001100110011001001100001 ^
#98000
0#
0?
b1 0
b1100010 &
0H
1G
#99000
1#
1?
b110010 /
03
b0 L
b110100001100110110001001100001 Q
b10 T
0.
0*
b10011 V
b110100001100110110001001100001 ^
b10000001101011011010100110100101100100011000110110001001100001 ]
#100000
0#
0?
b10 0
b1100011 &
1H
#101000
1#
1?
b110011 /
b110100011000110110001001100001 Q
b11 T
b10010 V
b110100011000110110001001100001 ^
#102000
0#
0?
b11 0
b1100100 &
0H
0G
1F
#103000
1#
1?
b110100 /
b1100100011000110110001001100001 Q
b100 T
b10001 V
b1100100011000110110001001100001 ^
#104000
0#
0?
14
0(
0J
b10 O
#105000
1#
1?
b110101 /
b10 N
1U
b11 O
#106000
0#
0?
#107000
1#
1?
b110110 /
b11 N
1M
1K
b0 T
1$
1)
b10101 V
0U
#108000
0#
0?
04
15
b0 6
b10 7
b100 7
1(
b0 0
b11 1
1J
b1 O
#109000
1#
1?
b110111 /
13
b1 N
0M
0K
b1100100011000110110001001100100 Q
b1 T
0$
0)
b10100 V
b1100100011000110110001001100100 ^
#110000
0#
0?
b1 0
b1101001 &
1H
0F
1E
#111000
1#
1?
b111000 /
03
b1100100011000110110100101100100 Q
b10 T
b10011 V
b1100100011000110110100101100100 ^
#112000
0#
0?
b10 0
b1101010 &
0H
1G
#113000
1#
1?
b111001 /
b1100100011010100110100101100100 Q
b11 T
b10010 V
b1100100011010100110100101100100 ^
#114000
0#
0?
b11 0
b1101011 &
1H
#115000
1#
1?
b111010 /
b1101011011010100110100101100100 Q
b100 T
b10001 V
b1101011011010100110100101100100 ^
#116000
0#
0?
14
0(
0J
b10 O
#117000
1#
1?
b111011 /
b10 N
#118000
0#
0?
#119000
1#
1?
b111100 /
b1 L
1.
b110110000100000011010110110101001101001011001000110001101100010 ]
#120000
0#
0?
#121000
1#
1?
b111101 /
b10 L
0.
1-
b110110101101100001000000110101101101010011010010110010001100011 ]
#122000
0#
0?
#123000
1#
1?
b111110 /
b11 L
1.
b110111001101101011011000010000001101011011010100110100101100100 ]
1U
b11 O
#124000
0#
0?
#125000
1#
1?
b111111 /
b11 N
1M
1K
b0 T
1$
1)
b10101 V
0U
#126000
0#
0?
04
b11 6
b101 7
b111 7
b10001 "
1(
b0 0
02
b0 1
b1110000 &
0H
0G
0E
1D
1J
b1 O
#127000
1#
1?
b1000000 /
13
b1 N
0M
0K
b1101011011010100110100101110000 Q
b1 T
0$
0)
b10100 V
b1101011011010100110100101110000 ^
#128000
0#
0?
b1 0
b1110001 &
1H
#129000
1#
1?
b1000001 /
03
b0 L
b1101011011010100111000101110000 Q
b10 T
0.
0-
b10011 V
b1101011011010100111000101110000 ^
b10000001101011011010100110100101100100011000110110001001100001 ]
#130000
0#
0?
b10 0
b1110010 &
0H
1G
#131000
1#
1?
b1000010 /
b1101011011100100111000101110000 Q
b11 T
b10010 V
b1101011011100100111000101110000 ^
#132000
0#
0?
b11 0
b1110011 &
1H
#133000
1#
1?
b1000011 /
b1110011011100100111000101110000 Q
b100 T
b10001 V
b1110011011100100111000101110000 ^
#134000
0#
0?
b100 0
b1110100 &
0H
0G
1F
#135000
1#
1?
b1000100 /
b111010001110011011100100111000101110000 Q
b101 T
b10000 V
b111010001110011011100100111000101110000 ^
#136000
0#
0?
14
0(
0J
b10 O
#137000
1#
1?
b1000101 /
b10 N
#138000
0#
0?
#139000
1#
1?
b1000110 /
b1 L
1.
b110110000100000011010110110101001101001011001000110001101100010 ]
#140000
0#
0?
#141000
1#
1?
b1000111 /
b10 L
0.
1-
b110110101101100001000000110101101101010011010010110010001100011 ]
#142000
0#
0?
#143000
1#
1?
b1001000 /
b11 L
1.
b110111001101101011011000010000001101011011010100110100101100100 ]
#144000
0#
0?
#145000
1#
1?
b1001001 /
b100 L
0.
0-
1,
b110111101101110011011010110110000100000011010110110101001101001 ]
#146000
0#
0?
#147000
1#
1?
b1001010 /
b101 L
1.
b111000001101111011011100110110101101100001000000110101101101010 ]
#148000
0#
0?
#149000
1#
1?
b1001011 /
b110 L
0.
1-
b10000001110000011011110110111001101101011011000010000001101011 ]
#150000
0#
0?
#151000
1#
1?
b1001100 /
b111 L
1.
b111000100100000011100000110111101101110011011010110110000100000 ]
#152000
0#
0?
#153000
1#
1?
b1001101 /
b1000 L
0.
0-
0,
1+
b10000001110001001000000111000001101111011011100110110101101100 ]
#154000
0#
0?
#155000
1#
1?
b1001110 /
b1001 L
1.
b111001000100000011100010010000001110000011011110110111001101101 ]
#156000
0#
0?
#157000
1#
1?
b1001111 /
b1010 L
0.
1-
b111001101110010001000000111000100100000011100000110111101101110 ]
#158000
0#
0?
#159000
1#
1?
b1010000 /
b1011 L
1.
b111010001110011011100100010000001110001001000000111000001101111 ]
#160000
0#
0?
#161000
1#
1?
b1010001 /
b1100 L
0.
0-
1,
b111010101110100011100110111001000100000011100010010000001110000 ]
#162000
0#
0?
#163000
1#
1?
b1010010 /
b1101 L
1.
b111011001110101011101000111001101110010001000000111000100100000 ]
#164000
0#
0?
#165000
1#
1?
b1010011 /
b1110 L
0.
1-
b1110110011101010111010001110011011100100010000001110001 ]
#166000
0#
0?
#167000
1#
1?
b1010100 /
b1111 L
1.
b11101100111010101110100011100110111001000100000 ]
#168000
0#
0?
#169000
1#
1?
b1010101 /
b10000 L
0.
0-
0,
0+
1*
b11 O
b111011001110101011101000111001101110010 ]
#170000
0#
0?
#171000
1#
1?
b1010110 /
b11 N
1M
b0 T
1$
b10101 V
#172000
0#
0?
04
05
b10000 6
b1000 7
1(
b0 0
b1110000 &
0F
1J
b1 O
#173000
1#
1?
b1010111 /
13
b1 N
0M
b1 T
0$
b10100 V
#174000
0#
0?
b1 0
b1110001 &
1H
#175000
1#
1?
b1011000 /
03
b0 L
b10 T
0*
b10011 V
b10000001101011011010100110100101100100011000110110001001100001 ]
#176000
0#
0?
b10 0
b1110010 &
0H
1G
#177000
1#
1?
b1011001 /
b11 T
b10010 V
#178000
0#
0?
b11 0
b101110 &
1F
1E
0D
0B
#179000
1#
1?
b1011010 /
b111010000101110011100100111000101110000 Q
b100 T
b10001 V
b111010001100100011100100111000101110000 ^
#180000
0#
0?
b100 0
b1110100 &
0G
0E
1D
1B
#181000
1#
1?
b1011011 /
b101 T
b10000 V
#182000
0#
0?
14
0(
0J
b10 O
#183000
1#
1?
b1011100 /
b10 N
#184000
0#
0?
#185000
1#
1?
b1011101 /
b1 L
1.
b110110000100000011010110110101001101001011001000110001101100010 ]
b111010001101001011100100111000101110000 ^
#186000
0#
0?
#187000
1#
1?
b1011110 /
b10 L
0.
1-
b110110101101100001000000110101101101010011010010110010001100011 ]
b111010001101010011100100111000101110000 ^
#188000
0#
0?
#189000
1#
1?
b1011111 /
b11 L
1.
b110111001101101011011000010000001101011011010100110100101100100 ]
b111010001101011011100100111000101110000 ^
#190000
0#
0?
#191000
1#
1?
b1100000 /
b100 L
0.
0-
1,
b110111101101110011011010110110000100000011010110110101001101001 ]
b111010000100000011100100111000101110000 ^
#192000
0#
0?
#193000
1#
1?
b1100001 /
b101 L
1.
b111000001101111011011100110110101101100001000000110101101101010 ]
b111010001101100011100100111000101110000 ^
#194000
0#
0?
#195000
1#
1?
b1100010 /
b110 L
0.
1-
b10000001110000011011110110111001101101011011000010000001101011 ]
b111010001101101011100100111000101110000 ^
#196000
0#
0?
#197000
1#
1?
b1100011 /
b111 L
1.
b111000100100000011100000110111101101110011011010110110000100000 ]
b111010001101110011100100111000101110000 ^
#198000
0#
0?
#199000
1#
1?
b1100100 /
b1000 L
0.
0-
0,
1+
b10000001110001001000000111000001101111011011100110110101101100 ]
b111010001101111011100100111000101110000 ^
#200000
0#
0?
#201000
1#
1?
b1100101 /
b1001 L
1.
b111001000100000011100010010000001110000011011110110111001101101 ]
b111010001110000011100100111000101110000 ^
#202000
0#
0?
#203000
1#
1?
b1100110 /
b1010 L
0.
1-
b111001101110010001000000111000100100000011100000110111101101110 ]
b111010000100000011100100111000101110000 ^
#204000
0#
0?
#205000
1#
1?
b1100111 /
b1011 L
1.
b111010001110011011100100010000001110001001000000111000001101111 ]
b111010001110001011100100111000101110000 ^
#206000
0#
0?
#207000
1#
1?
b1101000 /
b1100 L
0.
0-
1,
b111010101110100011100110111001000100000011100010010000001110000 ]
b111010000100000011100100111000101110000 ^
#208000
0#
0?
#209000
1#
1?
b1101001 /
b1101 L
1.
b111011001110101011101000111001101110010001000000111000100100000 ]
b111010001110010011100100111000101110000 ^
#210000
0#
0?
#211000
1#
1?
b1101010 /
b1110 L
0.
1-
b1110110011101010111010001110011011100100010000001110001 ]
b111010001110011011100100111000101110000 ^
#212000
0#
0?
#213000
1#
1?
b1101011 /
b1111 L
1.
b11101100111010101110100011100110111001000100000 ]
b111010001110100011100100111000101110000 ^
#214000
0#
0?
#215000
1#
1?
b1101100 /
b10000 L
0.
0-
0,
0+
1*
b11 O
b111011001110101011101000111001101110010 ]
b111010001110101011100100111000101110000 ^
#216000
0#
0?
#217000
1#
1?
b1101101 /
b11 N
1M
b0 T
1$
b10101 V
#218000
0#
0?
04
b1001 7
1(
b0 0
12
b10 1
b1100011 &
1H
1G
0F
0D
1J
b1 O
#219000
1#
1?
b1101110 /
13
b1 N
0M
b111010000101110011100100111000101100011 Q
b1 T
0$
b10100 V
b111010001110101011100100111000101100011 ^
#220000
0#
0?
b1 0
b101110 &
0H
1F
1E
0B
#221000
1#
1?
b1101111 /
03
b0 L
b111010000101110011100100010111001100011 Q
b10 T
0*
b10011 V
b111010001110101011100100111001101100011 ^
b10000001101011011010100110100101100100011000110110001001100001 ]
b111010001110101011100100110001001100011 ^
b111010001100100011100100110001001100011 ^
#222000
0#
0?
b10 0
#223000
1#
1?
b1110000 /
b111010000101110001011100010111001100011 Q
b11 T
b10010 V
b111010001100100011000110110001001100011 ^
#224000
0#
0?
b11 0
#225000
1#
1?
b1110001 /
b100 T
b10001 V
#226000
0#
0?
b100 0
b1101011 &
1H
0F
1B
#227000
1#
1?
b1110010 /
b110101100101110001011100010111001100011 Q
b101 T
b10000 V
b110101101100100011000110110001001100011 ^
#228000
0#
0?
14
0(
0J
b10 O
#229000
1#
1?
b1110011 /
b10 N
#230000
0#
0?
#231000
1#
1?
b1110100 /
b1 L
1.
b110110000100000011010110110101001101001011001000110001101100010 ]
b110101101100100011000110110001101100011 ^
b110101101100100011001000110001101100011 ^
b110101101101001011001000110001101100011 ^
#232000
0#
0?
#233000
1#
1?
b1110101 /
b10 L
0.
1-
b110110101101100001000000110101101101010011010010110010001100011 ]
b110101101101001011001000110010001100011 ^
b110101101101001011010010110010001100011 ^
b110101101101010011010010110010001100011 ^
1U
b11 O
#234000
0#
0?
#235000
1#
1?
b1110110 /
b11 N
1M
1K
b0 T
1$
1)
b10101 V
0U
#236000
0#
0?
04
15
b10 6
b1010 7
b1100 7
1(
b0 0
b1000 1
b1011110 &
0H
1F
1D
0C
1J
b1 O
#237000
1#
1?
b1110111 /
13
b1 N
0M
0K
b110101100101110001011100010111001011110 Q
b1 T
0$
0)
b10100 V
b110101101101010011010010110010000100000 ^
#238000
0#
0?
b1 0
b1101100 &
0G
0D
1C
#239000
1#
1?
b1111000 /
03
b0 L
b110101100101110001011100110110001011110 Q
b10 T
0-
b10011 V
b110101101101010011010010110110000100000 ^
b110101101101010011001000110110000100000 ^
b110101101101001011001000110110000100000 ^
b110101101101010011001000110110000100000 ^
b10000001101011011010100110100101100100011000110110001001100001 ]
b110101101101010011000100110110000100000 ^
b110101101100011011000100110110000100000 ^
b110101101100100011000100110110000100000 ^
#240000
0#
0?
b10 0
b1101101 &
1H
#241000
1#
1?
b1111001 /
b110101100101110011011010110110001011110 Q
b11 T
b10010 V
b110101101100100011011010110110000100000 ^
b110101101100011011011010110110000100000 ^
b110101101100100011011010110110000100000 ^
#242000
0#
0?
b11 0
b1101110 &
0H
1G
#243000
1#
1?
b1111010 /
b110101101101110011011010110110001011110 Q
b100 T
b10001 V
b110101101101110011011010110110000100000 ^
#244000
0#
0?
b100 0
b1101111 &
1H
#245000
1#
1?
b1111011 /
b110111101101110011011010110110001011110 Q
b101 T
b10000 V
b110111101101110011011010110110000100000 ^
#246000
0#
0?
14
0(
0J
b10 O
#247000
1#
1?
b1111100 /
b10 N
#248000
0#
0?
#249000
1#
1?
b1111101 /
b1 L
1.
b110110000100000011010110110101001101001011001000110001101100010 ]
#250000
0#
0?
#251000
1#
1?
b1111110 /
b10 L
0.
1-
b110110101101100001000000110101101101010011010010110010001100011 ]
#252000
0#
0?
#253000
1#
1?
b1111111 /
b11 L
1.
b110111001101101011011000010000001101011011010100110100101100100 ]
#254000
0#
0?
#255000
1#
1?
b10000000 /
b100 L
0.
0-
1,
b110111101101110011011010110110000100000011010110110101001101001 ]
#256000
0#
0?
#257000
1#
1?
b10000001 /
b101 L
1.
b111000001101111011011100110110101101100001000000110101101101010 ]
#258000
0#
0?
#259000
1#
1?
b10000010 /
b110 L
0.
1-
b10000001110000011011110110111001101101011011000010000001101011 ]
#260000
0#
0?
#261000
1#
1?
b10000011 /
b111 L
1.
b111000100100000011100000110111101101110011011010110110000100000 ]
1U
b11 O
#262000
0#
0?
#263000
1#
1?
b10000100 /
b11 N
1M
1K
b1000 L
b0 T
1$
1)
0.
0-
0,
1+
b10101 V
b10000001110001001000000111000001101111011011100110110101101100 ]
0U
#264000
0#
0?
04
b1000 6
b1101 7
b1111 7
b10010 "
1(
b0 0
b10000 1
b1110010 &
0H
0F
0E
1D
1J
b1 O
#265000
1#
1?
b10000101 /
13
b1 N
0M
0K
b110111101101110011011010110110001110010 Q
b1 T
0$
0)
b10100 V
b110111101101110011011010110110001110010 ^
#266000
0#
0?
b1 0
b1110011 &
1H
#267000
1#
1?
b10000110 /
03
b0 L
b110111101101110011011010111001101110010 Q
b10 T
0+
b10011 V
b110111101101110011011010111001101110010 ^
b10000001101011011010100110100101100100011000110110001001100001 ]
#268000
0#
0?
b10 0
b1110100 &
0H
0G
1F
#269000
1#
1?
b10000111 /
b110111101101110011101000111001101110010 Q
b11 T
b10010 V
b110111101101110011101000111001101110010 ^
#270000
0#
0?
b11 0
b1110101 &
1H
#271000
1#
1?
b10001000 /
b110111101110101011101000111001101110010 Q
b100 T
b10001 V
b110111101110101011101000111001101110010 ^
#272000
0#
0?
b100 0
b1110110 &
0H
1G
#273000
1#
1?
b10001001 /
b111011001110101011101000111001101110010 Q
b101 T
b10000 V
b111011001110101011101000111001101110010 ^
#274000
0#
0?
b101 0
b100100 &
0G
0D
0B
#275000
1#
1?
b10001010 /
b1001000111011001110101011101000111001101110010 Q
b110 T
b1000000111011001110101011101000111001101110010 ^
#276000
0#
0?
14
0(
0J
b10 O
#277000
1#
1?
b10001011 /
b10 N
#278000
0#
0?
#279000
1#
1?
b10001100 /
b1 L
1.
b110110000100000011010110110101001101001011001000110001101100010 ]
#280000
0#
0?
#281000
1#
1?
b10001101 /
b10 L
0.
1-
b110110101101100001000000110101101101010011010010110010001100011 ]
#282000
0#
0?
#283000
1#
1?
b10001110 /
b11 L
1.
b110111001101101011011000010000001101011011010100110100101100100 ]
#284000
0#
0?
#285000
1#
1?
b10001111 /
b100 L
0.
0-
1,
b110111101101110011011010110110000100000011010110110101001101001 ]
#286000
0#
0?
#287000
1#
1?
b10010000 /
b101 L
1.
b111000001101111011011100110110101101100001000000110101101101010 ]
#288000
0#
0?
#289000
1#
1?
b10010001 /
b110 L
0.
1-
b10000001110000011011110110111001101101011011000010000001101011 ]
#290000
0#
0?
#291000
1#
1?
b10010010 /
b111 L
1.
b111000100100000011100000110111101101110011011010110110000100000 ]
#292000
0#
0?
#293000
1#
1?
b10010011 /
b1000 L
0.
0-
0,
1+
b10000001110001001000000111000001101111011011100110110101101100 ]
#294000
0#
0?
#295000
1#
1?
b10010100 /
b1001 L
1.
b111001000100000011100010010000001110000011011110110111001101101 ]
#296000
0#
0?
#297000
1#
1?
b10010101 /
b1010 L
0.
1-
b111001101110010001000000111000100100000011100000110111101101110 ]
#298000
0#
0?
#299000
1#
1?
b10010110 /
b1011 L
1.
b111010001110011011100100010000001110001001000000111000001101111 ]
#300000
0#
0?
#301000
1#
1?
b10010111 /
b1100 L
0.
0-
1,
b111010101110100011100110111001000100000011100010010000001110000 ]
#302000
0#
0?
#303000
1#
1?
b10011000 /
b1101 L
1.
b111011001110101011101000111001101110010001000000111000100100000 ]
#304000
0#
0?
#305000
1#
1?
b10011001 /
b1110 L
0.
1-
b1110110011101010111010001110011011100100010000001110001 ]
#306000
0#
0?
#307000
1#
1?
b10011010 /
b1111 L
1.
b11101100111010101110100011100110111001000100000 ]
#308000
0#
0?
#309000
1#
1?
b10011011 /
b10000 L
0.
0-
0,
0+
1*
b11 O
b111011001110101011101000111001101110010 ]
1U
#310000
0#
0?
#311000
1#
1?
b10011100 /
b11 N
1M
1K
b0 T
1$
1)
b10110 V
0U
#312000
0#
0?
04
b10000 6
b10000 7
b10010 7
b10000 "
1(
b0 0
02
b0 1
b1011110 &
1G
1E
1D
0C
1B
1J
b1 O
#313000
1#
1?
b10011101 /
13
b1 N
0M
0K
b1001000111011001110101011101000111001101011110 Q
b1 T
0$
0)
b10101 V
b1000000111011001110101011101000111001100100000 ^
#314000
0#
0?
b1 0
b1110010 &
0F
0E
1C
#315000
1#
1?
b10011110 /
03
b0 L
b1001000111011001110101011101000111001001011110 Q
b10 T
0*
b10100 V
b1000000111011001110101011101000111001000100000 ^
b10000001101011011010100110100101100100011000110110001001100001 ]
#316000
0#
0?
b10 0
b1101101 &
1H
0G
1F
1E
0D
#317000
1#
1?
b10011111 /
b1001000111011001110101011011010111001001011110 Q
b11 T
b10011 V
b1000000111011001110101011011010111001000100000 ^
#318000
0#
0?
b11 0
b1101110 &
0H
1G
#319000
1#
1?
b10100000 /
b1001000111011001101110011011010111001001011110 Q
b100 T
b10010 V
b1000000111011001101110011011010111001000100000 ^
#320000
0#
0?
14
0(
0J
b10 O
#321000
1#
1?
b10100001 /
b10 N
#322000
0#
0?
#323000
1#
1?
b10100010 /
b1 L
1.
b110110000100000011010110110101001101001011001000110001101100010 ]
#324000
0#
0?
#325000
1#
1?
b10100011 /
b10 L
0.
1-
b110110101101100001000000110101101101010011010010110010001100011 ]
#326000
0#
0?
#327000
1#
1?
b10100100 /
b11 L
1.
b110111001101101011011000010000001101011011010100110100101100100 ]
#328000
0#
0?
#329000
1#
1?
b10100101 /
b100 L
0.
0-
1,
b110111101101110011011010110110000100000011010110110101001101001 ]
#330000
0#
0?
#331000
1#
1?
b10100110 /
b101 L
1.
b111000001101111011011100110110101101100001000000110101101101010 ]
#332000
0#
0?
#333000
1#
1?
b10100111 /
b110 L
0.
1-
b10000001110000011011110110111001101101011011000010000001101011 ]
#334000
0#
0?
#335000
1#
1?
b10101000 /
b111 L
1.
b111000100100000011100000110111101101110011011010110110000100000 ]
#336000
0#
0?
#337000
1#
1?
b10101001 /
b1000 L
0.
0-
0,
1+
b10000001110001001000000111000001101111011011100110110101101100 ]
#338000
0#
0?
